module gitlab.com/frog_in_fog000/happy_birthday_bot

go 1.22.1

require (
	github.com/gorilla/mux v1.8.1
	github.com/ilyakaznacheev/cleanenv v1.5.0
	github.com/jackc/pgx/v5 v5.6.0
	github.com/redis/go-redis/v9 v9.5.2
)

require (
	github.com/BurntSushi/toml v1.2.1 // indirect
	github.com/cespare/xxhash/v2 v2.2.0 // indirect
	github.com/dgryski/go-rendezvous v0.0.0-20200823014737-9f7001d12a5f // indirect
	github.com/go-telegram-bot-api/telegram-bot-api/v5 v5.5.1 // indirect
	github.com/golang-jwt/jwt v3.2.2+incompatible // indirect
	github.com/google/uuid v1.6.0 // indirect
	github.com/jackc/pgpassfile v1.0.0 // indirect
	github.com/jackc/pgservicefile v0.0.0-20221227161230-091c0ba34f0a // indirect
	github.com/jackc/puddle/v2 v2.2.1 // indirect
	github.com/joho/godotenv v1.5.1 // indirect
	github.com/kr/text v0.2.0 // indirect
	github.com/onsi/ginkgo v1.16.5 // indirect
	github.com/onsi/gomega v1.33.1 // indirect
	github.com/robfig/cron/v3 v3.0.0 // indirect
	github.com/rogpeppe/go-internal v1.12.0 // indirect
	golang.org/x/crypto v0.17.0 // indirect
	golang.org/x/sync v0.1.0 // indirect
	golang.org/x/text v0.14.0 // indirect
	gopkg.in/yaml.v3 v3.0.1 // indirect
	olympos.io/encoding/edn v0.0.0-20201019073823-d3554ca0b0a3 // indirect
)
